commit 3baaa16db37f9cb15c74e0e4adc358c5abdf5015
Author: s154099 <s154099@student.dtu.dk>
Date:   Sun Oct 2 16:06:27 2016 +0200

    Rettelse

commit bbf8c64a7dafaf812fa9af5628bc35a27404e51f
Author: Roar Steffensen <Roar@roars-mbp.eduroam.wireless.dtu.dk>
Date:   Sun Oct 2 16:04:22 2016 +0200

    Changed main.tex

commit 4172dab31e75bc08e85ca4f1c28f13d31303e0dc
Author: Roar Steffensen <Roar@roars-mbp.eduroam.wireless.dtu.dk>
Date:   Sun Oct 2 15:59:54 2016 +0200

    Fixed unwanted files

commit 03ef377ee146bf43fb89c2b38383b1849e8bb276
Author: s154099 <s154099@student.dtu.dk>
Date:   Sun Oct 2 15:57:28 2016 +0200

    færdig med ny sektion

commit 2f11f6a18be4fee6332eaaa4ac8fbbcdef9c178c
Author: Roar Steffensen <Roar@roars-mbp.eduroam.wireless.dtu.dk>
Date:   Sun Oct 2 15:50:18 2016 +0200

    Deleted unsued file litteratur.bib

commit 07231c91589ec640e2e7de26b13e1a7a8503654c
Author: Roar Steffensen <Roar@roars-mbp.eduroam.wireless.dtu.dk>
Date:   Sun Oct 2 15:49:14 2016 +0200

    Added folder A1
